v 20130925 2
C 40000 40000 0 0 0 title-B.sym
T 50100 40700 9 10 1 0 0 0 1
a trigger built from spice-style-opamp
N 42500 44500 42500 46300 4
N 42500 48500 42500 47500 4
T 53900 40400 9 10 1 0 0 0 1
0
T 53900 40100 9 10 1 0 0 0 1
Felix
C 42400 44200 1 0 0 gnd-1.sym
N 45000 47100 44500 47100 4
N 44500 47100 44500 48500 4
N 43900 48500 45400 48500 4
N 44500 44500 44500 46500 4
N 44500 46500 45000 46500 4
N 47800 47100 51400 47100 4
C 43000 48400 1 0 0 resistor-2.sym
{
T 43400 48750 5 10 0 0 0 0 1
device=RESISTOR
T 43200 48700 5 10 1 1 0 0 1
refdes=R1
T 43000 48200 5 10 1 0 0 0 1
value=1k
}
N 42500 48500 43000 48500 4
N 46500 46500 47000 46500 4
N 47000 46500 47000 45500 4
C 46900 45200 1 0 0 gnd-1.sym
C 42100 46000 1 180 0 spice-subcircuit-IO-1.sym
{
T 41200 45600 5 10 0 1 180 0 1
device=spice-IO
T 41850 45350 5 10 1 0 180 0 1
refdes=ngnd
T 41950 44850 5 10 1 0 180 0 1
pinlabel=ngnd
T 40600 45400 5 10 0 0 0 0 1
pintype=PASSIVE
T 41000 45000 5 10 1 0 0 0 1
pinseq=1
}
C 51200 46800 1 0 0 spice-subcircuit-IO-1.sym
{
T 51650 46550 5 10 1 0 0 0 1
refdes=nout
T 51650 46350 5 10 1 0 0 0 1
pinlabel=nout
T 53000 47900 5 10 0 0 180 0 1
pintype=OUTPUT
T 52400 46300 5 10 1 0 180 0 1
pinseq=2
}
N 41900 45700 42500 45700 4
C 45000 46400 1 0 0 vcvs-1.sym
{
T 45200 47450 5 10 0 0 0 0 1
device=SPICE-vcvs
T 45600 47250 5 10 1 1 0 0 1
refdes=vcvs1
T 45200 47650 5 10 0 0 0 0 1
symversion=0.1
T 45700 46350 5 10 1 0 0 5 1
value=100
}
C 42200 46300 1 0 0 vsin-1.sym
{
T 40900 47250 5 10 1 1 0 0 1
refdes=V1_
T 42900 47150 5 10 0 0 0 0 1
device=vsin
T 42900 47350 5 10 0 0 0 0 1
footprint=none
T 40900 46950 5 10 1 0 0 0 1
amplitude=1
T 40900 46600 5 10 1 0 0 0 1
frequency=1e6
}
C 45400 48400 1 0 0 resistor-2.sym
{
T 45800 48750 5 10 0 0 0 0 1
device=RESISTOR
T 45600 48700 5 10 1 1 0 0 1
refdes=R2
T 45400 48200 5 10 1 0 0 0 1
value=1k
}
N 46300 48500 50500 48500 4
N 50500 48500 50500 47100 4
C 48800 46900 1 270 0 diode-1.sym
{
T 49400 46500 5 10 0 0 270 0 1
device=DIODE
T 49100 46000 5 10 1 1 0 0 1
refdes=D1
}
C 48700 46000 1 90 0 diode-1.sym
{
T 48100 46400 5 10 0 0 90 0 1
device=DIODE
T 48800 46200 5 10 1 1 180 0 1
refdes=D2
}
N 48500 46900 48500 47100 4
N 49000 46900 49000 47100 4
C 46900 47000 1 0 0 resistor-2.sym
{
T 47300 47350 5 10 0 0 0 0 1
device=RESISTOR
T 47100 47300 5 10 1 1 0 0 1
refdes=Rout
T 46900 46800 5 10 1 0 0 0 1
value=1
}
N 46900 47100 46500 47100 4
C 48400 45200 1 0 0 gnd-1.sym
N 48500 45500 48500 46000 4
C 48900 45200 1 0 0 gnd-1.sym
N 49000 45500 49000 46000 4
C 50700 45100 1 90 0 capacitor-1.sym
{
T 50000 45300 5 10 0 0 90 0 1
device=CAPACITOR
T 50100 45400 5 10 1 1 180 0 1
refdes=C1
T 49800 45300 5 10 0 0 90 0 1
symversion=0.1
T 50700 45100 5 10 1 1 0 0 1
value=1n
}
N 50500 47100 50500 46000 4
N 50500 45100 50500 44500 4
C 50400 44200 1 0 0 gnd-1.sym
C 44400 44200 1 0 0 gnd-1.sym
B 44700 45000 4900 2800 3 0 0 0 -1 -1 0 -1 -1 -1 -1 -1
