reading file auto_top.1s.sch
reading file auto_dut.3a.sch
mmm: port #1 (a) never connected, strategy 
module !_voltage-3.sym (.\1 (\1 ),.\2 (\2 ));
endmodule // !_voltage-3.sym

module DUT (.x_cn_9(x_cn_9),.x_cn_10(x_cn_10),.\3 (x_cn_13));
  //v 20130925 2 
  //comment (incomplete) title-B.sym
  //T 50000 40700 9 10 1 0 0 0 1 
  //Device under test 
  //T 53900 40100 9 10 1 0 0 0 1 
  //felix 
  (* geda_basename="spice-subcircuit-IO-1.sym", geda_basename="spice-subcircuit-IO-1.sym", S0_x1=45900, S0_y1=46800 *) port #(.pinseq(1),.pinlabel(1)) P1 (.int(x_cn_9));
  (* geda_basename="spice-subcircuit-IO-1.sym", geda_basename="spice-subcircuit-IO-1.sym", S0_x1=47900, S0_y1=46800 *) port #(.pinseq(2),.pinlabel(2)) P2 (.int(x_cn_10));
  (* geda_color=4, S0_x1=46400, S0_y1=46800, S0_x2=45900, S0_y2=46800 *) net #() net6 (.p(x_nn_11),.n(x_cn_9));
  (* geda_color=4, S0_x1=47300, S0_y1=46800, S0_x2=47900, S0_y2=46800 *) net #() net7 (.p(x_nn_12),.n(x_cn_10));
  (* geda_basename="spice-subcircuit-IO-1.sym", geda_basename="spice-subcircuit-IO-1.sym", S0_x1=49000, S0_y1=45600 *) port #(.pinseq(3),.pinlabel(3),.default_value(toprail)) P3 (.int(x_cn_13));
  (* geda_color=4, S0_x1=48400, S0_y1=45600, S0_x2=49000, S0_y2=45600 *) net #() net8 (.p(x_nn_14),.n(x_cn_13));
endmodule // DUT

module mm (.a(x_nn_6));
  //v 20130925 2 
  //comment (incomplete) title-B.sym
  (* geda_color=4, S0_x1=46100, S0_y1=45200, S0_x2=46100, S0_y2=46300 *) net #() net0 (.p(x_nn_0),.n(x_nn_1));
  (* geda_basename="voltage-3.sym", geda_basename="voltage-3.sym", S0_x_1=43900, S0_y_1=46900, S0_x_2=43900, S0_y_2=46000 *) VOLTAGE_SOURCE #(.symversion(0.1),.value(1)) V1 (.\1 (x_cn_2),.\2 (x_cn_3));
  (* geda_color=4, S0_x1=43900, S0_y1=45200, S0_x2=43900, S0_y2=46000 *) net #() net1 (.p(x_nn_4),.n(x_cn_3));
  (* geda_color=4, S0_x1=43900, S0_y1=46900, S0_x2=43900, S0_y2=47900 *) net #() net2 (.p(x_cn_2),.n(x_nn_5));
  (* geda_color=4, S0_x1=43900, S0_y1=47900, S0_x2=49300, S0_y2=47900 *) net #() nhi (.p(x_nn_5),.n(x_nn_6),.m1(x_nn_7));
  (* geda_color=4, S0_x1=46100, S0_y1=47900, S0_x2=46100, S0_y2=47200 *) net #() net4 (.p(x_nn_7),.n(x_nn_8));
  (* geda_basename="gnd-1.sym", geda_basename="gnd-1.sym", S0_x1=43900, S0_y1=45200 *) rail #(.net(lg)) lg (.pin(x_nn_4),.rail(lg));
  (* geda_basename="gnd-1.sym", geda_basename="gnd-1.sym", S0_x1=46100, S0_y1=45200 *) rail #(.net(lg)) lg (.pin(x_nn_0),.rail(lg));
  (* geda_basename="resistor-2.sym", geda_basename="resistor-2.sym", S0_x1=46100, S0_y1=46300, S0_x2=46100, S0_y2=47200 *) DUT #(.default_connect(auto),.footprint(ACY500.fp),.source(auto_dut.3a.sch),.symversion(0.1),.value(1k)) dut0 (.x_cn_9(x_nn_1),.x_cn_10(x_nn_8));
  //T 50000 40700 9 10 1 0 0 0 1 
  //Testbench 
  //T 53900 40100 9 10 1 0 0 0 1 
  //felix 
  (* geda_basename="spice-subcircuit-IO-1.sym", geda_basename="spice-subcircuit-IO-1.sym", S0_x1=49300, S0_y1=47900 *) port #(.pinlabel(a)) a (.int(x_nn_6));
endmodule // mm

module VOLTAGE_SOURCE (.\1 (\1 ),.\2 (\2 ));
  vsource #(value) v (\1 ,\2 );
endmodule // VOLTAGE_SOURCE

mm #() mmm ();
mmm: port #1 (a) never connected, strategy 
mmm.dut0: port #3 (3) never connected, strategy auto
mmm.dut0: port #3 (3) autoconnect to x_cn_13
Creating new node x_cn_13 in mmm
mmm: port #1 (a) never connected, strategy 
#          
 0.        
