load lang_geda.so 
     ^ ? "../src/.libs/lang_geda.so": already loaded, replacing
paramset cmosn_local nmos; 
^ ? ERROR: This will not work. Need top level.
            ^ ? syntax error
            ^ ? syntax error
paramset local_cmosp pmos; 
^ ? ERROR: This will not work. Need top level.
            ^ ? syntax error
            ^ ? syntax error
reading file buf.1.sch
} 
^ ? VOLTAGE_SOURCE Nothing there?
} 
^ ? VOLTAGE_SOURCE Nothing there?
} 
^ ? VOLTAGE_SOURCE Nothing there?
} 
^ ? VOLTAGE_SOURCE Nothing there?
} 
^ ? VOLTAGE_SOURCE Nothing there?
} 
^ ? VOLTAGE_SOURCE Nothing there?
} 
^ ? PMOS_TRANSISTOR Nothing there?
} 
^ ? PMOS_TRANSISTOR Nothing there?
} 
^ ? PMOS_TRANSISTOR Nothing there?
} 
^ ? CURRENT_SOURCE Nothing there?
} 
^ ? CURRENT_SOURCE Nothing there?
} 
^ ? CURRENT_SOURCE Nothing there?
buf #(.bias(.01 ... , .nout(nout), .gnd(0)); 
                                        ^ ? invalid identifier
PMOS_TRANSISTOR.m: no candidates found for local_cmosp
PMOS_TRANSISTOR.m: no candidates found for local_cmosp
mybuf.P2.m: no valid prototype found for local_cmosp
PMOS_TRANSISTOR.m: no candidates found for local_cmosp
PMOS_TRANSISTOR.m: no candidates found for local_cmosp
PMOS_TRANSISTOR.m: no candidates found for local_cmosp
PMOS_TRANSISTOR.m: no candidates found for local_cmosp
PMOS_TRANSISTOR.m: no candidates found for local_cmosp
PMOS_TRANSISTOR.m: no candidates found for local_cmosp
PMOS_TRANSISTOR.m: no candidates found for local_cmosp
PMOS_TRANSISTOR.m: no candidates found for local_cmosp
PMOS_TRANSISTOR.m: no candidates found for local_cmosp
PMOS_TRANSISTOR.m: no candidates found for local_cmosp
PMOS_TRANSISTOR.m: no candidates found for local_cmosp
PMOS_TRANSISTOR.m: no candidates found for local_cmosp
mybuf.P2.m: no valid prototype found for local_cmosp
PMOS_TRANSISTOR.m: no candidates found for local_cmosp
PMOS_TRANSISTOR.m: no candidates found for local_cmosp
PMOS_TRANSISTOR.m: no candidates found for local_cmosp
PMOS_TRANSISTOR.m: no candidates found for local_cmosp
PMOS_TRANSISTOR.m: no candidates found for local_cmosp
PMOS_TRANSISTOR.m: no candidates found for local_cmosp
PMOS_TRANSISTOR.m: no candidates found for local_cmosp
PMOS_TRANSISTOR.m: no candidates found for local_cmosp
PMOS_TRANSISTOR.m: no candidates found for local_cmosp
PMOS_TRANSISTOR.m: no candidates found for local_cmosp
PMOS_TRANSISTOR.m: no candidates found for local_cmosp
PMOS_TRANSISTOR.m: no candidates found for local_cmosp
PMOS_TRANSISTOR.m: no candidates found for local_cmosp
PMOS_TRANSISTOR.m: no candidates found for local_cmosp
PMOS_TRANSISTOR.m: no candidates found for local_cmosp
PMOS_TRANSISTOR.m: no candidates found for local_cmosp
PMOS_TRANSISTOR.m: no candidates found for local_cmosp
PMOS_TRANSISTOR.m: no candidates found for local_cmosp
PMOS_TRANSISTOR.m: no candidates found for local_cmosp
PMOS_TRANSISTOR.m: no candidates found for local_cmosp
PMOS_TRANSISTOR.m: no candidates found for local_cmosp
PMOS_TRANSISTOR.m: no candidates found for local_cmosp
mybuf.P2.m: no valid prototype found for local_cmosp
PMOS_TRANSISTOR.m: no candidates found for local_cmosp
PMOS_TRANSISTOR.m: no candidates found for local_cmosp
PMOS_TRANSISTOR.m: no candidates found for local_cmosp
PMOS_TRANSISTOR.m: no candidates found for local_cmosp
PMOS_TRANSISTOR.m: no candidates found for local_cmosp
PMOS_TRANSISTOR.m: no candidates found for local_cmosp
PMOS_TRANSISTOR.m: no candidates found for local_cmosp
PMOS_TRANSISTOR.m: no candidates found for local_cmosp
PMOS_TRANSISTOR.m: no candidates found for local_cmosp
PMOS_TRANSISTOR.m: no candidates found for local_cmosp
PMOS_TRANSISTOR.m: no candidates found for local_cmosp
PMOS_TRANSISTOR.m: no candidates found for local_cmosp
PMOS_TRANSISTOR.m: no candidates found for local_cmosp
PMOS_TRANSISTOR.m: no candidates found for local_cmosp
PMOS_TRANSISTOR.m: no candidates found for local_cmosp
PMOS_TRANSISTOR.m: no candidates found for local_cmosp
PMOS_TRANSISTOR.m: no candidates found for local_cmosp
PMOS_TRANSISTOR.m: no candidates found for local_cmosp
PMOS_TRANSISTOR.m: no candidates found for local_cmosp
PMOS_TRANSISTOR.m: no candidates found for local_cmosp
PMOS_TRANSISTOR.m: no candidates found for local_cmosp
PMOS_TRANSISTOR.m: no candidates found for local_cmosp
PMOS_TRANSISTOR.m: no candidates found for local_cmosp
PMOS_TRANSISTOR.m: no candidates found for local_cmosp
PMOS_TRANSISTOR.m: no candidates found for local_cmosp
PMOS_TRANSISTOR.m: no candidates found for local_cmosp
PMOS_TRANSISTOR.m: no candidates found for local_cmosp
PMOS_TRANSISTOR.m: no candidates found for local_cmosp
PMOS_TRANSISTOR.m: no candidates found for local_cmosp
PMOS_TRANSISTOR.m: no candidates found for local_cmosp
PMOS_TRANSISTOR.m: no candidates found for local_cmosp
PMOS_TRANSISTOR.m: no candidates found for local_cmosp
mybuf.P2.m: no valid prototype found for local_cmosp
options numdgt=3 
^ ? O: no match
PMOS_TRANSISTOR.m: no candidates found for local_cmosp
PMOS_TRANSISTOR.m: no candidates found for local_cmosp
PMOS_TRANSISTOR.m: no candidates found for local_cmosp
PMOS_TRANSISTOR.m: no candidates found for local_cmosp
PMOS_TRANSISTOR.m: no candidates found for local_cmosp
PMOS_TRANSISTOR.m: no candidates found for local_cmosp
PMOS_TRANSISTOR.m: no candidates found for local_cmosp
PMOS_TRANSISTOR.m: no candidates found for local_cmosp
PMOS_TRANSISTOR.m: no candidates found for local_cmosp
PMOS_TRANSISTOR.m: no candidates found for local_cmosp
PMOS_TRANSISTOR.m: no candidates found for local_cmosp
PMOS_TRANSISTOR.m: no candidates found for local_cmosp
PMOS_TRANSISTOR.m: no candidates found for local_cmosp
PMOS_TRANSISTOR.m: no candidates found for local_cmosp
PMOS_TRANSISTOR.m: no candidates found for local_cmosp
PMOS_TRANSISTOR.m: no candidates found for local_cmosp
PMOS_TRANSISTOR.m: no candidates found for local_cmosp
PMOS_TRANSISTOR.m: no candidates found for local_cmosp
PMOS_TRANSISTOR.m: no candidates found for local_cmosp
PMOS_TRANSISTOR.m: no candidates found for local_cmosp
PMOS_TRANSISTOR.m: no candidates found for local_cmosp
PMOS_TRANSISTOR.m: no candidates found for local_cmosp
PMOS_TRANSISTOR.m: no candidates found for local_cmosp
PMOS_TRANSISTOR.m: no candidates found for local_cmosp
PMOS_TRANSISTOR.m: no candidates found for local_cmosp
PMOS_TRANSISTOR.m: no candidates found for local_cmosp
PMOS_TRANSISTOR.m: no candidates found for local_cmosp
PMOS_TRANSISTOR.m: no candidates found for local_cmosp
PMOS_TRANSISTOR.m: no candidates found for local_cmosp
PMOS_TRANSISTOR.m: no candidates found for local_cmosp
PMOS_TRANSISTOR.m: no candidates found for local_cmosp
PMOS_TRANSISTOR.m: no candidates found for local_cmosp
PMOS_TRANSISTOR.m: no candidates found for local_cmosp
PMOS_TRANSISTOR.m: no candidates found for local_cmosp
PMOS_TRANSISTOR.m: no candidates found for local_cmosp
PMOS_TRANSISTOR.m: no candidates found for local_cmosp
PMOS_TRANSISTOR.m: no candidates found for local_cmosp
PMOS_TRANSISTOR.m: no candidates found for local_cmosp
PMOS_TRANSISTOR.m: no candidates found for local_cmosp
PMOS_TRANSISTOR.m: no candidates found for local_cmosp
PMOS_TRANSISTOR.m: no candidates found for local_cmosp
PMOS_TRANSISTOR.m: no candidates found for local_cmosp
mybuf.P2.m: no valid prototype found for local_cmosp
no match: v(nout)
no match: v(nout)
int((10 * m0))=int((m0 * 10))
int(m1)=int(m1)
