module main ();
  //v 20130925 2
  //comment (incomplete) title-B.sym
  (* geda_color=4, S0_x1=46500, S0_y1=45000, S0_x2=47500, S0_y2=44000 *) net #() net0 (.p(x_nn_0),.n(x_nn_1));
  (* geda_color=4, S0_x1=46500, S0_y1=44000, S0_x2=47500, S0_y2=45000 *) net #() net1 (.p(x_nn_2),.n(x_nn_3));
  (* geda_color=4, S0_x1=47000, S0_y1=44000, S0_x2=47000, S0_y2=44500 *) net #() net2 (.p(x_nn_4),.n(x_nn_5));
endmodule // main

