load lang_geda.so 
     ^ ? "../src/.libs/lang_geda.so": already loaded, replacing
>>>>>spice 
>>>>>.param amplitude = 1 
>>>>>.param offset 0 
>>>>>.options language=verilog 
>>>>>spice 
>>>>>.verilog 
>>>>>module NMOS_TRANSISTOR(D G S B); 
>>>>>module VOLTAGE_SOURCE(1, 2); 
module VOLTAGE_SOURCE(1, 2); 
                      ^ ? invalid identifier
module VOLTAGE_SOURCE(1, 2); 
                         ^ ? invalid identifier
vsource #(.dc(value)) v(1, 2); 
                        ^ ? invalid identifier
vsource #(.dc(value)) v(1, 2); 
                           ^ ? invalid identifier
>>>>>geda "d_gedasckt.2.sch" module device="amp" 
reading file d_gedasckt.2.sch
>pi>
>pi2>v 20130925 2 
>pi>v 20130925 2 
>pi2>C 40000 40000 0 0 0 title-B.sym 
>pi>C 46300 46900 1 270 0 nmos-1.sym 
>pi2>C 46300 46900 1 270 0 nmos-1.sym 
>dev>NMOS_TRANSISTOR
} 
^ ? NMOS_TRANSISTOR Nothing there?
>dev>NMOS_TRANSISTOR
} 
^ ? NMOS_TRANSISTOR Nothing there?
>inst>} 
>dev>NMOS_TRANSISTOR
} 
^ ? NMOS_TRANSISTOR Nothing there?
>pi>} 
>pi2>T 50100 40700 9 10 1 0 0 0 1 
>pi>T 50100 40700 9 10 1 0 0 0 1 
>pi2>debugging gnd issue 
>pi>debugging gnd issue 
>pi2>C 43400 46700 1 270 0 voltage-3.sym 
>dev>VOLTAGE_SOURCE
} 
^ ? VOLTAGE_SOURCE Nothing there?
>dev>VOLTAGE_SOURCE
} 
^ ? VOLTAGE_SOURCE Nothing there?
>inst>} 
>dev>VOLTAGE_SOURCE
} 
^ ? VOLTAGE_SOURCE Nothing there?
>pi>} 
>pi2>C 43800 45800 1 180 0 5V-minus-1.sym 
>dev>rail
>inst>} 
>dev>rail
>pi>} 
>pi2>T 53900 40300 9 10 1 0 0 0 1 
>pi>T 53900 40300 9 10 1 0 0 0 1 
>pi2>1.1 
>pi>1.1 
>pi2>T 53900 40100 9 10 1 0 0 0 1 
>pi>T 53900 40100 9 10 1 0 0 0 1 
>pi2>Felix 
>pi>Felix 
>pi2>C 43600 46600 1 0 0 passive-1.sym 
>dev>port
>dev>port
>inst>} 
>dev>port
>pi>} 
>pi2>C 46900 46200 1 180 0 5V-minus-1.sym 
>dev>rail
>inst>C 46900 46200 1 180 0 5V-minus-1.sym 
>dev>rail
>pi>C 46900 46200 1 180 0 5V-minus-1.sym 
amp #(.vdd(3.3)) myamp(.ngnd(0)); 
                             ^ ? invalid identifier
>>>>>list 
.param amplitude = 1 
.param offset 0 
//* V1 nin 0 1 
module NMOS_TRANSISTOR (.D(D),.G(G),.S(S),.B(B));
endmodule // NMOS_TRANSISTOR

module VOLTAGE_SOURCE (.\1 (\1 ),.\2 (\2 ));
  parameter value=1; 
  vsource #(.dc(value)) v (\1 ,\2 );
endmodule // VOLTAGE_SOURCE

module amp (.ngnd(x_cn_4));
  //v 20130925 2 
  //comment (incomplete) title-B.sym
  (* geda_basename="nmos-1.sym", geda_basename="nmos-1.sym", S0_x_B=46700, S0_y_B=46200, S0_x_D=47100, S0_y_D=46400, S0_x_G=46700, S0_y_G=46900, S0_x_S=46300, S0_y_S=46400 *) NMOS_TRANSISTOR #(.description(NMOS),.footprint(TO92.fp),.numslots(0),.symversion(0.1),.value(2N7000)) N2 (.D(x_cn_1),.G(x_cn_2),.S(x_cn_3),.B(x_cn_0));
  //T 50100 40700 9 10 1 0 0 0 1 
  //debugging gnd issue 
  (* geda_basename="voltage-3.sym", geda_basename="voltage-3.sym", S0_x_1=43600, S0_y_1=46700, S0_x_2=43600, S0_y_2=45800 *) VOLTAGE_SOURCE #(.symversion(0.1),.value(vdd)) Vlow (.\1 (x_cn_4),.\2 (x_cn_5));
  (* geda_basename="5V-minus-1.sym", geda_basename="5V-minus-1.sym", S0_x1=43600, S0_y1=45800 *) rail #(.net(-5V:1)) lowrail (.pin(x_cn_5),.rail(-5V:1));
  //T 53900 40300 9 10 1 0 0 0 1 
  //1.1 
  //T 53900 40100 9 10 1 0 0 0 1 
  //Felix 
  (* geda_basename="passive-1.sym", geda_basename="passive-1.sym", S0_x1=43600, S0_y1=46700 *) port #(.net(ngnd)) ngnd (.int(x_cn_4));
  (* geda_basename="5V-minus-1.sym", geda_basename="5V-minus-1.sym", S0_x1=46700, S0_y1=46200 *) rail #(.net(-5V:1)) -5V:1 (.pin(x_cn_0),.rail(-5V:1));
endmodule // amp

//amp #(.vdd(3.3)) myamp(.nin(0), .nout(0), .ngnd(0)); 
amp #(.vdd(3.3)) myamp (.ngnd(\0 ));
>>>>>spice 
>>>>>.print op v(nin) v(v1)  v(myamp.lowrail)  ev(myamp.Vlow.v)  v(myamp.Vlow.v)  i(myamp.Vlow.v)  ncc(myamp) 
collapse myamp: x_cn_5 (6), -5V:1(7)
collapse myamp: x_cn_0 (1), -5V:1(7)
myamp: map_subckt_nodes net: 1 sckt: 7
myamp: map_subckt_nodes connected components 5
collapse myamp: x_cn_5 (6), -5V:1(7)
collapse myamp: x_cn_0 (1), -5V:1(7)
myamp.N2: map_subckt_nodes net: 4 sckt: 4
myamp.N2: map_subckt_nodes connected components 4
VOLTAGE_SOURCE.v: vsource from device_dispatcher
VOLTAGE_SOURCE.v: 1 candidate found for vsource
myamp.Vlow: map_subckt_nodes net: 2 sckt: 2
myamp.Vlow: map_subckt_nodes connected components 2
.print op v(nin) v(v1)  v(myamp.lowrail)  ev(myamp.Vlow.v)  v(myamp.Vl
            ^ ? no match
.print op v(nin) v(v1)  v(myamp.lowrail)  ev(myamp.Vlow.v)  v(myamp.Vl
                   ^ ? no match
>>>>>.op 
collapse myamp: x_cn_5 (6), -5V:1(7)
collapse myamp: x_cn_0 (1), -5V:1(7)
collapse myamp: x_cn_5 (6), -5V:1(7)
collapse myamp: x_cn_0 (1), -5V:1(7)
#           v(myamp.lowrail) ev(myamp.Vlow.v) v(myamp.Vlow.v) i(myamp.Vlow.v) ncc(myamp)
 27.       -3.3        3.3        3.3        0.         5.        
>>>>>.end 
