module main (.P1(x_cn_6),.P4(x_cn_7),.P2(x_nn_4),.P3(x_cn_8));
  //v 20081231 1
  //comment (incomplete) title-B.sym
  (* geda_color=4, S0_x1=47500, S0_y1=45600, S0_x2=47500, S0_y2=46900 *) net #() net0 (.p(x_nn_0),.n(x_nn_1),.m1(cn_7));
  (* geda_color=4, S0_x1=48200, S0_y1=46900, S0_x2=48400, S0_y2=46900 *) net #() net1 (.p(x_nn_2),.n(x_nn_3));
  (* geda_color=4, S0_x1=48100, S0_y1=47500, S0_x2=48100, S0_y2=47400 *) net #() net2 (.p(x_nn_4),.n(x_nn_5));
  //T 51800 40900 9 16 1 0 0 0 1
  //Inverter Gate
  //T 50100 40400 9 10 1 0 0 0 1
  //inverter.sch
  //T 50500 40100 9 10 1 0 0 0 1
  //1
  //T 52200 40100 9 10 1 0 0 0 1
  //1
  //T 54200 40400 9 10 1 0 0 0 1
  //1
  //T 54300 40100 9 10 1 0 0 0 1
  //Facundo J Ferrer
  //comment (incomplete) spice-subcircuit-LL-1.sym
  (* geda_basename="spice-subcircuit-IO-1.sym", geda_basename="spice-subcircuit-IO-1.sym", S0_x1=49100, S0_y1=46200 *) port #() P1 (.int(x_cn_6));
  (* geda_basename="spice-subcircuit-IO-1.sym", geda_basename="spice-subcircuit-IO-1.sym", S0_x1=47500, S0_y1=46300 *) port #() P4 (.int(x_cn_7));
  (* geda_basename="spice-subcircuit-IO-1.sym", geda_basename="spice-subcircuit-IO-1.sym", S0_x1=48100, S0_y1=47500 *) port #() P2 (.int(x_nn_4));
  (* geda_basename="spice-subcircuit-IO-1.sym", geda_basename="spice-subcircuit-IO-1.sym", S0_x1=48100, S0_y1=44700 *) port #() P3 (.int(x_cn_8));
  //comment (incomplete) spice-model-1.sym
  //comment (incomplete) spice-model-1.sym
  (* geda_color=4, S0_x1=48400, S0_y1=46900, S0_x2=48400, S0_y2=47400 *) net #() net4 (.p(x_nn_3),.n(x_nn_9));
  (* geda_color=4, S0_x1=48400, S0_y1=47400, S0_x2=48100, S0_y2=47400 *) net #() net5 (.p(x_nn_9),.n(x_nn_5));
  (* geda_color=4, S0_x1=48400, S0_y1=44700, S0_x2=48100, S0_y2=44700 *) net #() net6 (.p(x_nn_10),.n(x_cn_8));
  (* geda_color=4, S0_x1=48100, S0_y1=46200, S0_x2=49100, S0_y2=46200 *) net #() net7 (.p(x_nn_11),.n(x_cn_6));
  (* geda_basename="asic-nmos-1.sym", geda_basename="asic-nmos-1.sym", S0_x_B=48200, S0_y_B=45600, S0_x_D=48100, S0_y_D=46100, S0_x_G=47500, S0_y_G=45600, S0_x_S=48100, S0_y_S=45100 *) NMOS_TRANSISTOR #(.description(low),.l(3u),.model-name(nmos4),.w(1u)) M2 (.D(x_cn_13),.G(x_nn_0),.S(x_cn_14),.B(x_cn_12));
  (* geda_basename="asic-pmos-1.sym", geda_basename="asic-pmos-1.sym", S0_x_B=48200, S0_y_B=46900, S0_x_D=48100, S0_y_D=46400, S0_x_G=47500, S0_y_G=46900, S0_x_S=48100, S0_y_S=47400 *) PMOS_TRANSISTOR #(.description(low),.l(1u),.model-name(pmos4),.w(10u)) M1 (.D(x_cn_15),.G(x_nn_1),.S(x_nn_5),.B(x_nn_2));
  (* geda_color=4, S0_x1=48100, S0_y1=46100, S0_x2=48100, S0_y2=46400 *) net #() net8 (.p(x_cn_13),.n(x_cn_15),.m1(x_nn_11));
  (* geda_color=4, S0_x1=48400, S0_y1=44700, S0_x2=48400, S0_y2=45600 *) net #() net10 (.p(x_nn_10),.n(x_nn_16));
  (* geda_color=4, S0_x1=48400, S0_y1=45600, S0_x2=48200, S0_y2=45600 *) net #() net11 (.p(x_nn_16),.n(x_cn_12));
  (* geda_color=4, S0_x1=48100, S0_y1=44700, S0_x2=48100, S0_y2=45100 *) net #() net12 (.p(x_cn_8),.n(x_cn_14));
endmodule // main

