module main (.Pin_6(x_cn_6),.Pin_5(x_cn_7),.Pin_4(x_cn_8),.Pin_3(x_cn_9),.Pin_2(x_cn_10),.+5v(x_cn_21),.Ground(x_cn_32),.Pin_7(x_cn_37),.Pin_9(x_cn_38));
  //v 20071231 1
  //comment (incomplete) title-B.sym
  //T 50300 40700 9 20 1 0 0 0 1
  //Ganzbot 2008
  //T 54100 40200 9 20 1 0 0 0 1
  //Jeremy Gillick
  (* geda_basename="resistor-1.sym", geda_basename="resistor-1.sym", S0_x_1=53500, S0_y_1=45200, S0_x_2=54400, S0_y_2=45200 *) RESISTOR #(.class(DISCRETE),.footprint(ACY500.fp),.pins(2),.symversion(0.1),.value(1k)) 270 (.\1 (x_cn_0),.\2 (x_cn_1));
  (* geda_basename="resistor-1.sym", geda_basename="resistor-1.sym", S0_x_1=53500, S0_y_1=43700, S0_x_2=54400, S0_y_2=43700 *) RESISTOR #(.class(DISCRETE),.footprint(ACY500.fp),.pins(2),.symversion(0.1),.value(1k)) 270 (.\1 (x_cn_2),.\2 (x_cn_3));
  (* geda_basename="resistor-1.sym", geda_basename="resistor-1.sym", S0_x_1=53500, S0_y_1=42200, S0_x_2=54400, S0_y_2=42200 *) RESISTOR #(.class(DISCRETE),.footprint(ACY500.fp),.pins(2),.symversion(0.1),.value(1k)) 270 (.\1 (x_cn_4),.\2 (x_cn_5));
  (* geda_basename="in-1.sym", geda_basename="in-1.sym", S0_x1=55500, S0_y1=47600 *) port #() Pin_6 (.int(x_cn_6));
  (* geda_basename="in-1.sym", geda_basename="in-1.sym", S0_x1=55500, S0_y1=46600 *) port #() Pin_5 (.int(x_cn_7));
  (* geda_basename="in-1.sym", geda_basename="in-1.sym", S0_x1=55500, S0_y1=45200 *) port #() Pin_4 (.int(x_cn_8));
  (* geda_basename="in-1.sym", geda_basename="in-1.sym", S0_x1=55500, S0_y1=43700 *) port #() Pin_3 (.int(x_cn_9));
  (* geda_basename="in-1.sym", geda_basename="in-1.sym", S0_x1=55500, S0_y1=42200 *) port #() Pin_2 (.int(x_cn_10));
  (* geda_basename="2N2222-1.sym", geda_basename="2N2222-1.sym", S0_x_1=50000, S0_y_1=45200, S0_x_2=49400, S0_y_2=44700, S0_x_3=49400, S0_y_3=45700 *) 2N2222 #() Q1 (.\3 (x_cn_13),.\1 (x_cn_11),.\2 (x_cn_12));
  (* geda_basename="2N2222-1.sym", geda_basename="2N2222-1.sym", S0_x_1=50000, S0_y_1=43700, S0_x_2=49400, S0_y_2=43200, S0_x_3=49400, S0_y_3=44200 *) 2N2222 #() Q1 (.\3 (x_cn_16),.\1 (x_cn_14),.\2 (x_cn_15));
  (* geda_basename="2N2222-1.sym", geda_basename="2N2222-1.sym", S0_x_1=50000, S0_y_1=42200, S0_x_2=49400, S0_y_2=41700, S0_x_3=49400, S0_y_3=42700 *) 2N2222 #() Q1 (.\3 (x_cn_19),.\1 (x_cn_17),.\2 (x_cn_18));
  (* geda_color=4, S0_x1=42000, S0_y1=45700, S0_x2=49400, S0_y2=45700 *) net #() net0 (.p(x_nn_20),.n(x_cn_13),.m1(x_nn_35));
  (* geda_basename="in-1.sym", geda_basename="in-1.sym", S0_x1=41000, S0_y1=50000 *) port #() +5v (.int(x_cn_21));
  (* geda_basename="led-3.sym", geda_basename="led-3.sym", S0_x_ANODE=48200, S0_y_ANODE=44700, S0_x_CATHODE=47300, S0_y_CATHODE=44700 *) LED #(.description(Generic),.numslots(0)) D1 (.CATHODE(x_cn_23),.ANODE(x_cn_22));
  (* geda_basename="led-3.sym", geda_basename="led-3.sym", S0_x_ANODE=48200, S0_y_ANODE=43200, S0_x_CATHODE=47300, S0_y_CATHODE=43200 *) LED #(.description(Generic),.numslots(0)) D2 (.CATHODE(x_cn_25),.ANODE(x_cn_24));
  (* geda_basename="led-3.sym", geda_basename="led-3.sym", S0_x_ANODE=48200, S0_y_ANODE=41700, S0_x_CATHODE=47300, S0_y_CATHODE=41700 *) LED #(.description(Generic),.numslots(0)) D3 (.CATHODE(x_cn_27),.ANODE(x_cn_26));
  (* geda_color=4, S0_x1=49400, S0_y1=44700, S0_x2=48200, S0_y2=44700 *) net #() net1 (.p(x_cn_12),.n(x_cn_22));
  (* geda_color=4, S0_x1=49400, S0_y1=43200, S0_x2=48200, S0_y2=43200 *) net #() net2 (.p(x_cn_15),.n(x_cn_24));
  (* geda_color=4, S0_x1=49400, S0_y1=41700, S0_x2=48200, S0_y2=41700 *) net #() net3 (.p(x_cn_18),.n(x_cn_26));
  (* geda_color=4, S0_x1=47300, S0_y1=44700, S0_x2=47300, S0_y2=41700 *) net #() net4 (.p(x_cn_23),.n(x_cn_27),.m1(x_cn_25));
  (* geda_color=4, S0_x1=47300, S0_y1=44700, S0_x2=47000, S0_y2=44700 *) net #() net6 (.p(x_cn_23),.n(x_nn_28));
  (* geda_color=4, S0_x1=47000, S0_y1=44700, S0_x2=47000, S0_y2=45200 *) net #() net7 (.p(x_nn_28),.n(x_nn_29));
  (* geda_basename="resistor-1.sym", geda_basename="resistor-1.sym", S0_x_1=45900, S0_y_1=45200, S0_x_2=46800, S0_y_2=45200 *) RESISTOR #(.class(DISCRETE),.footprint(ACY500.fp),.pins(2),.symversion(0.1),.value(1k)) 270 (.\1 (x_cn_30),.\2 (x_cn_31));
  (* geda_basename="in-1.sym", geda_basename="in-1.sym", S0_x1=41000, S0_y1=49200 *) port #() Ground (.int(x_cn_32));
  (* geda_color=4, S0_x1=48600, S0_y1=44200, S0_x2=49400, S0_y2=44200 *) net #() net8 (.p(x_nn_33),.n(x_cn_16));
  (* geda_color=4, S0_x1=48600, S0_y1=42700, S0_x2=48600, S0_y2=45700 *) net #() net9 (.p(x_nn_34),.n(x_nn_35),.m1(x_nn_33));
  (* geda_color=4, S0_x1=49400, S0_y1=42700, S0_x2=48600, S0_y2=42700 *) net #() net12 (.p(x_cn_19),.n(x_nn_34));
  (* geda_color=4, S0_x1=45900, S0_y1=45200, S0_x2=41000, S0_y2=45200 *) net #() net13 (.p(x_cn_30),.n(x_nn_36));
  (* geda_color=4, S0_x1=41000, S0_y1=45200, S0_x2=41000, S0_y2=49200 *) net #() net14 (.p(x_nn_36),.n(x_cn_32),.m1(x_nn_64));
  (* geda_basename="in-1.sym", geda_basename="in-1.sym", S0_x1=55500, S0_y1=49200 *) port #() Pin_7 (.int(x_cn_37));
  (* geda_basename="in-1.sym", geda_basename="in-1.sym", S0_x1=55500, S0_y1=49900 *) port #() Pin_9 (.int(x_cn_38));
  (* geda_color=4, S0_x1=42000, S0_y1=45700, S0_x2=42000, S0_y2=50000 *) net #() net15 (.p(x_nn_20),.n(x_nn_39));
  (* geda_color=4, S0_x1=54400, S0_y1=45200, S0_x2=55500, S0_y2=45200 *) net #() net16 (.p(x_cn_1),.n(x_cn_8));
  (* geda_color=4, S0_x1=55500, S0_y1=43700, S0_x2=54400, S0_y2=43700 *) net #() net17 (.p(x_cn_9),.n(x_cn_3));
  (* geda_color=4, S0_x1=55500, S0_y1=42200, S0_x2=54400, S0_y2=42200 *) net #() net18 (.p(x_cn_10),.n(x_cn_5));
  (* geda_basename="led-3.sym", geda_basename="led-3.sym", S0_x_ANODE=48700, S0_y_ANODE=47600, S0_x_CATHODE=49600, S0_y_CATHODE=47600 *) LED #(.description(Generic),.numslots(0)) Red (.CATHODE(x_cn_41),.ANODE(x_cn_40));
  (* geda_basename="led-3.sym", geda_basename="led-3.sym", S0_x_ANODE=48700, S0_y_ANODE=46900, S0_x_CATHODE=49600, S0_y_CATHODE=46900 *) LED #(.description(Generic),.numslots(0)) Blue (.CATHODE(x_cn_43),.ANODE(x_cn_42));
  (* geda_color=4, S0_x1=48700, S0_y1=47600, S0_x2=48700, S0_y2=46900 *) net #() net19 (.p(x_cn_40),.n(x_cn_42),.m1(x_nn_78));
  (* geda_color=4, S0_x1=47000, S0_y1=47200, S0_x2=46400, S0_y2=47200 *) net #() net20 (.p(x_nn_44),.n(x_nn_45));
  (* geda_color=4, S0_x1=46400, S0_y1=47200, S0_x2=46400, S0_y2=50000 *) net #() net21 (.p(x_nn_45),.n(x_nn_46));
  //B 48500 46400 1300 1800 3 0 0 0 -1 -1 0 -1 -1 -1 -1 -1
  //T 48500 48300 9 10 1 0 0 0 1
  //Multi-Color LED
  (* geda_basename="2N2222-1.sym", geda_basename="2N2222-1.sym", S0_x_1=50700, S0_y_1=46000, S0_x_2=50200, S0_y_2=46600, S0_x_3=51200, S0_y_3=46600 *) 2N2222 #() Q? (.\3 (x_cn_49),.\1 (x_cn_47),.\2 (x_cn_48));
  (* geda_basename="2N2222-1.sym", geda_basename="2N2222-1.sym", S0_x_1=50700, S0_y_1=47300, S0_x_2=50200, S0_y_2=47900, S0_x_3=51200, S0_y_3=47900 *) 2N2222 #() Q? (.\3 (x_cn_52),.\1 (x_cn_50),.\2 (x_cn_51));
  (* geda_color=4, S0_x1=55400, S0_y1=46600, S0_x2=55500, S0_y2=46600 *) net #() net22 (.p(x_nn_53),.n(x_cn_7));
  (* geda_color=4, S0_x1=55400, S0_y1=46600, S0_x2=55400, S0_y2=46000 *) net #() net23 (.p(x_nn_53),.n(x_nn_54));
  (* geda_color=4, S0_x1=53500, S0_y1=46000, S0_x2=50700, S0_y2=46000 *) net #() net24 (.p(x_nn_55),.n(x_cn_47));
  (* geda_color=4, S0_x1=55500, S0_y1=47600, S0_x2=55400, S0_y2=47600 *) net #() net25 (.p(x_cn_6),.n(x_nn_56));
  (* geda_color=4, S0_x1=55400, S0_y1=47600, S0_x2=55400, S0_y2=47300 *) net #() net26 (.p(x_nn_56),.n(x_nn_57));
  (* geda_color=4, S0_x1=53500, S0_y1=47300, S0_x2=50700, S0_y2=47300 *) net #() net27 (.p(x_nn_58),.n(x_cn_50));
  (* geda_color=4, S0_x1=50200, S0_y1=47900, S0_x2=50000, S0_y2=47900 *) net #() net28 (.p(x_cn_51),.n(x_nn_59));
  (* geda_color=4, S0_x1=50000, S0_y1=47900, S0_x2=50000, S0_y2=47600 *) net #() net29 (.p(x_nn_59),.n(x_nn_60));
  (* geda_color=4, S0_x1=50000, S0_y1=47600, S0_x2=49600, S0_y2=47600 *) net #() net30 (.p(x_nn_60),.n(x_cn_41));
  (* geda_color=4, S0_x1=50200, S0_y1=46600, S0_x2=50200, S0_y2=46900 *) net #() net31 (.p(x_cn_48),.n(x_nn_61));
  (* geda_color=4, S0_x1=50200, S0_y1=46900, S0_x2=49600, S0_y2=46900 *) net #() net32 (.p(x_nn_61),.n(x_cn_43));
  (* geda_color=4, S0_x1=51200, S0_y1=46600, S0_x2=51700, S0_y2=46600 *) net #() net33 (.p(x_cn_49),.n(x_nn_62));
  (* geda_color=4, S0_x1=51700, S0_y1=46600, S0_x2=51700, S0_y2=48600 *) net #() net34 (.p(x_nn_62),.n(x_nn_63),.m1(x_nn_65));
  (* geda_color=4, S0_x1=51700, S0_y1=48600, S0_x2=41000, S0_y2=48600 *) net #() net35 (.p(x_nn_63),.n(x_nn_64));
  (* geda_color=4, S0_x1=51200, S0_y1=47900, S0_x2=51700, S0_y2=47900 *) net #() net37 (.p(x_cn_52),.n(x_nn_65));
  (* geda_color=4, S0_x1=53500, S0_y1=42200, S0_x2=50000, S0_y2=42200 *) net #() net39 (.p(x_cn_4),.n(x_cn_17));
  (* geda_color=4, S0_x1=50000, S0_y1=43700, S0_x2=53500, S0_y2=43700 *) net #() net40 (.p(x_cn_14),.n(x_cn_2));
  (* geda_color=4, S0_x1=53500, S0_y1=45200, S0_x2=50000, S0_y2=45200 *) net #() net41 (.p(x_cn_0),.n(x_cn_11));
  (* geda_color=4, S0_x1=41000, S0_y1=49200, S0_x2=53400, S0_y2=49200 *) net #() net42 (.p(x_cn_32),.n(x_nn_66));
  (* geda_color=4, S0_x1=41000, S0_y1=50000, S0_x2=52700, S0_y2=50000 *) net #() net43 (.p(x_cn_21),.n(x_nn_67),.m1(x_nn_39),.m2(x_nn_46));
  (* geda_basename="header3-1.sym", geda_basename="header3-1.sym", S0_x_1=54200, S0_y_1=49200, S0_x_2=53800, S0_y_2=49200, S0_x_3=53400, S0_y_3=49200 *) HEADER3 #(.class(IO),.pins(3)) J? (.\1 (x_cn_68),.\2 (x_cn_69),.\3 (x_nn_66));
  (* geda_basename="header3-1.sym", geda_basename="header3-1.sym", S0_x_1=54200, S0_y_1=49900, S0_x_2=53800, S0_y_2=49900, S0_x_3=53400, S0_y_3=49900 *) HEADER3 #(.class(IO),.pins(3)) J? (.\1 (x_cn_70),.\2 (x_cn_71),.\3 (x_cn_72));
  (* geda_color=4, S0_x1=55500, S0_y1=49900, S0_x2=54200, S0_y2=49900 *) net #() net46 (.p(x_cn_38),.n(x_cn_70));
  (* geda_color=4, S0_x1=55500, S0_y1=49200, S0_x2=54200, S0_y2=49200 *) net #() net47 (.p(x_cn_37),.n(x_cn_68));
  (* geda_color=4, S0_x1=53800, S0_y1=49900, S0_x2=53800, S0_y2=49200 *) net #() net48 (.p(x_cn_71),.n(x_cn_69),.m1(x_nn_73));
  (* geda_color=4, S0_x1=53400, S0_y1=49200, S0_x2=53400, S0_y2=49900 *) net #() net49 (.p(x_nn_66),.n(x_cn_72));
  (* geda_color=4, S0_x1=53800, S0_y1=49600, S0_x2=52700, S0_y2=49600 *) net #() net50 (.p(x_nn_73),.n(x_nn_74));
  (* geda_color=4, S0_x1=52700, S0_y1=49600, S0_x2=52700, S0_y2=50000 *) net #() net52 (.p(x_nn_74),.n(x_nn_67));
  //T 53300 50700 9 10 1 0 0 0 1
  //Right Servo
  //T 53400 48200 9 10 1 0 0 0 1
  //Left Servo
  (* geda_basename="resistor-1.sym", geda_basename="resistor-1.sym", S0_x_1=53500, S0_y_1=46000, S0_x_2=54400, S0_y_2=46000 *) RESISTOR #(.class(DISCRETE),.footprint(ACY500.fp),.pins(2),.symversion(0.1),.value(1k)) 270 (.\1 (x_nn_55),.\2 (x_cn_75));
  (* geda_basename="resistor-1.sym", geda_basename="resistor-1.sym", S0_x_1=53500, S0_y_1=47300, S0_x_2=54400, S0_y_2=47300 *) RESISTOR #(.class(DISCRETE),.footprint(ACY500.fp),.pins(2),.symversion(0.1),.value(1k)) 270 (.\1 (x_nn_58),.\2 (x_cn_76));
  (* geda_color=4, S0_x1=54400, S0_y1=47300, S0_x2=55400, S0_y2=47300 *) net #() net53 (.p(x_cn_76),.n(x_nn_57));
  (* geda_color=4, S0_x1=54400, S0_y1=46000, S0_x2=55400, S0_y2=46000 *) net #() net54 (.p(x_cn_75),.n(x_nn_54));
  (* geda_basename="resistor-1.sym", geda_basename="resistor-1.sym", S0_x_1=47000, S0_y_1=47200, S0_x_2=47900, S0_y_2=47200 *) RESISTOR #(.class(DISCRETE),.footprint(ACY500.fp),.pins(2),.symversion(0.1),.value(1k)) 270 (.\1 (x_nn_44),.\2 (x_cn_77));
  (* geda_color=4, S0_x1=47900, S0_y1=47200, S0_x2=48700, S0_y2=47200 *) net #() net55 (.p(x_cn_77),.n(x_nn_78));
  (* geda_color=4, S0_x1=46800, S0_y1=45200, S0_x2=47000, S0_y2=45200 *) net #() net57 (.p(x_cn_31),.n(x_nn_29));
  //T 49000 46200 9 10 1 0 0 0 1
  //Eye
endmodule // main

