module nmos-1.sym ();
  geda_pin #(.$xposition(0),.$yposition(400),.color(0),.pinseq(2)) G ();
  geda_pin #(.$xposition(500),.$yposition(800),.color(0),.pinseq(1)) D ();
  geda_pin #(.$xposition(700),.$yposition(400),.color(0),.pinseq(4)) B ();
  geda_pin #(.$xposition(500),.$yposition(0),.color(0),.pinseq(3)) S ();
endmodule // nmos-1.sym

module in-1.sym ();
  geda_pin #(.$xposition(600),.$yposition(100),.color(0),.pinseq(1)) unknown_pin_1 ();
endmodule // in-1.sym

