module test (.x_cn_0(x_cn_0),.x_cn_1(x_cn_1));
  (* geda_basename="passive-1.sym", S0_x1=48500, S0_y1=44600 *) port #(.net("a")) a (.int(x_cn_0));
  (* geda_basename="passive-1.sym" *) port #(.net("b")) b (.int(x_cn_1));
  (* S0_x_n=48100, S0_y_n=44600 *) resistor #(.r(1.)) r0 (.p(x_cn_0),.n(x_cn_1));
endmodule // test

test #() t1 (.x_cn_0(\0 ),.x_cn_1(\1 ));
vsource #(.dc(2)) v1 (.p(\1 ),.n(\0 ));
#           v(1)       i(v1)      r(t1.r0)   i(t1.r0)  
 0.         0.        -200.K      1.         0.        
-1.         2.        -2.         1.        -2.        
-2.         2.        -2.         1.        -2.        
-3.         2.        -2.         1.        -2.        
 0.         2.        -2.         1.        -2.        
Gnucap   System status
iterations: op=0, dc=4, tran=0, fourier=0, total=4
transient timesteps: accepted=0, rejected=0, total=0
nodes: user=1, subckt=0, model=0, total=1
dctran density=100.0%, ac density=100.0%
